<svg xmlns="http://www.w3.org/2000/svg" x="0" y="0" viewBox="0 0 85.039 85.04">
  <style>
    .st1{fill:none;stroke:#cd191c;stroke-width:5.176;stroke-linejoin:round;stroke-miterlimit:10}
  </style>
  <path class="st1" d="M80.817,42.52c0,21.151-17.146,38.297-38.298,38.297c-21.15,0-38.298-17.146-38.298-38.297
    S21.369,4.223,42.52,4.223c4.841,0,9.471,0.898,13.734,2.536"/>
  <line class="st1" x1="25" y1="22.54" x2="63.375" y2="60.915"/>
  <line class="st1" x1="25" y1="60.915" x2="63.375" y2="22.54"/>
</svg>
