<?xml version="1.0" encoding="utf-8"?>
<!-- Generator: Adobe Illustrator 16.0.0, SVG Export Plug-In . SVG Version: 6.00 Build 0)  -->
<!DOCTYPE svg PUBLIC "-//W3C//DTD SVG 1.1//EN" "http://www.w3.org/Graphics/SVG/1.1/DTD/svg11.dtd">
<svg version="1.1" id="圖層_1" xmlns="http://www.w3.org/2000/svg" xmlns:xlink="http://www.w3.org/1999/xlink" x="0px" y="0px"
	 width="85.039px" height="85.04px" viewBox="0 0 85.039 85.04" style="enable-background:new 0 0 85.039 85.04;"
	 xml:space="preserve">
<style type="text/css">
<![CDATA[
	.st0{fill:#009966;}
]]>
</style>
<path class="st0" d="M37.751,75.426H3.566c-1.656,0-3-1.343-3-3V35.182h6v34.244h31.185V75.426z"/>
<g>
	<path class="st0" d="M26.979,33.456h-1.532v5.545h1.532c1.224,0,2.083-0.207,2.576-0.621c0.494-0.413,0.741-1.131,0.741-2.152
		c0-1.021-0.247-1.739-0.741-2.152C29.063,33.663,28.203,33.456,26.979,33.456z"/>
	<path class="st0" d="M41.754,33.684h-1.013v12.168h1.013c1.469,0,2.516-0.463,3.14-1.387c0.625-0.924,0.938-2.497,0.938-4.717
		c0-2.203-0.313-3.765-0.938-4.685C44.27,34.144,43.223,33.684,41.754,33.684z"/>
	<path class="st0" d="M12.418,16.558v45.765h60.204V16.558H12.418z M32.468,40.749c-1.144,0.929-3.02,1.393-5.628,1.393h-1.393
		v7.078h-3.734V30.316h5.127c2.608,0,4.484,0.464,5.628,1.393c1.144,0.929,1.716,2.435,1.716,4.52
		C34.184,38.313,33.611,39.82,32.468,40.749z M47.68,46.998c-1.359,1.481-3.583,2.222-6.673,2.222h-4V30.316h4
		c3.09,0,5.313,0.736,6.673,2.209c1.358,1.473,2.038,3.88,2.038,7.223C49.718,43.1,49.038,45.516,47.68,46.998z M64.96,33.608
		h-8.039v4.077h7.317v3.292h-7.317v8.243h-3.734V30.316H64.96V33.608z"/>
</g>
</svg>
