<?xml version="1.0" encoding="utf-8"?>
<!-- Generator: Adobe Illustrator 16.0.0, SVG Export Plug-In . SVG Version: 6.00 Build 0)  -->
<!DOCTYPE svg PUBLIC "-//W3C//DTD SVG 1.1//EN" "http://www.w3.org/Graphics/SVG/1.1/DTD/svg11.dtd">
<svg version="1.1" id="圖層_1" xmlns="http://www.w3.org/2000/svg" xmlns:xlink="http://www.w3.org/1999/xlink" x="0px" y="0px"
	 width="85.039px" height="85.04px" viewBox="0 0 85.039 85.04" style="enable-background:new 0 0 85.039 85.04;"
	 xml:space="preserve">
<path d="M63.439,50.712H49.961v34.319H33.404V50.817H19.18V34.236h14.058c0.049-0.869,0.111-1.516,0.116-2.162
	c0.036-4.054-0.192-8.132,0.171-12.155c0.264-2.923,0.97-5.911,2.066-8.632c2.371-5.891,7.233-8.925,13.209-10.257
	c5.219-1.163,10.51-1.284,15.814-0.617c0.447,0.056,0.885,0.187,1.244,0.265v15.094c-1.292,0-2.336-0.028-3.378,0.005
	c-2.521,0.079-5.063,0.006-7.554,0.328c-3.099,0.4-4.873,2.678-4.893,5.785c-0.021,3.497-0.034,6.994-0.041,10.491
	c-0.002,0.543,0.044,1.087,0.078,1.891h15.646C64.938,39.899,64.2,45.226,63.439,50.712"/>
</svg>
