<?xml version="1.0" encoding="utf-8"?>
<!-- Generator: Adobe Illustrator 25.4.1, SVG Export Plug-In . SVG Version: 6.00 Build 0)  -->
<svg version="1.1" id="圖層_1" xmlns="http://www.w3.org/2000/svg" xmlns:xlink="http://www.w3.org/1999/xlink" x="0px" y="0px"
	 viewBox="0 0 14.4 14.4" style="enable-background:new 0 0 14.4 14.4;" xml:space="preserve">
<path d="M7.2,0C7.2,0,7.2,0,7.2,0C7.2,0,7.2,0,7.2,0C7.2,0,7.2,0,7.2,0C3.2,0,0,3.2,0,7.2c0,4,3.2,7.2,7.2,7.2c0,0,0,0,0,0
	c0,0,0,0,0,0c0,0,0,0,0,0c4,0,7.2-3.2,7.2-7.2C14.4,3.2,11.2,0,7.2,0z M12.8,6.4h-1.7c-0.1-1.6-0.4-3-1-4.1
	C11.6,3.2,12.6,4.7,12.8,6.4z M6.4,1.8v4.6H4.7C4.9,4.2,5.6,2.5,6.4,1.8z M6.4,7.9v4.6c-0.8-0.7-1.6-2.4-1.7-4.6H6.4z M7.9,12.6V7.9
	h1.7C9.5,10.2,8.8,11.9,7.9,12.6z M7.9,6.4V1.8c0.8,0.7,1.6,2.4,1.7,4.6H7.9z M4.2,2.4c-0.5,1.1-0.9,2.5-1,4.1H1.6
	C1.8,4.7,2.8,3.2,4.2,2.4z M1.6,7.9h1.7c0.1,1.6,0.4,3,1,4.1C2.8,11.2,1.8,9.7,1.6,7.9z M10.2,12c0.5-1.1,0.9-2.5,1-4.1h1.7
	C12.6,9.7,11.6,11.2,10.2,12z"/>
</svg>
