<?xml version="1.0" encoding="utf-8"?>
<!-- Generator: Adobe Illustrator 16.0.0, SVG Export Plug-In . SVG Version: 6.00 Build 0)  -->
<!DOCTYPE svg PUBLIC "-//W3C//DTD SVG 1.1//EN" "http://www.w3.org/Graphics/SVG/1.1/DTD/svg11.dtd">
<svg version="1.1" id="圖層_1" xmlns="http://www.w3.org/2000/svg" xmlns:xlink="http://www.w3.org/1999/xlink" x="0px" y="0px"
	 width="85.039px" height="85.04px" viewBox="0 0 85.039 85.04" style="enable-background:new 0 0 85.039 85.04;"
	 xml:space="preserve">
<g>
	<path d="M68.892,73.343H16.148c-1.657,0-3-1.343-3-3V57.27h6v10.073h46.743V57.27h6v13.073C71.892,72,70.549,73.343,68.892,73.343z
		"/>
</g>
<g>
	<rect x="39.52" y="13.398" width="6" height="42.993"/>
</g>
<g>
	<path d="M42.519,59.392L42.519,59.392c-0.796,0-1.559-0.316-2.122-0.879L22.672,40.786l4.243-4.242l15.603,15.605l15.606-15.605
		l4.242,4.242L44.64,58.513C44.077,59.076,43.314,59.392,42.519,59.392z"/>
</g>
</svg>
