<?xml version="1.0" encoding="utf-8"?>
<!-- Generator: Adobe Illustrator 16.0.0, SVG Export Plug-In . SVG Version: 6.00 Build 0)  -->
<!DOCTYPE svg PUBLIC "-//W3C//DTD SVG 1.1//EN" "http://www.w3.org/Graphics/SVG/1.1/DTD/svg11.dtd">
<svg version="1.1" id="圖層_1" xmlns="http://www.w3.org/2000/svg" xmlns:xlink="http://www.w3.org/1999/xlink" x="0px" y="0px"
	 width="85.981px" height="85.981px" viewBox="0 0 85.981 85.981" style="enable-background:new 0 0 85.981 85.981;"
	 xml:space="preserve">
<path d="M63.328,45.951l-5.656-5.657l19.555-19.555c0.487-0.487,0.755-1.134,0.755-1.823s-0.268-1.336-0.755-1.823l-8.338-8.338
	c-0.975-0.975-2.672-0.975-3.646,0L45.688,28.31c-0.239,0.239-0.225,0.697-0.207,0.882c0.063,0.671,0.43,1.387,1.007,1.963
	l-5.656,5.657c-1.9-1.899-3.077-4.34-3.315-6.871c-0.261-2.773,0.656-5.43,2.515-7.289L59.586,3.098C61.584,1.1,64.24,0,67.065,0
	c2.826,0,5.482,1.101,7.48,3.099l8.337,8.337c1.998,1.998,3.099,4.654,3.099,7.48s-1.101,5.482-3.099,7.48L63.328,45.951z"/>
<path d="M19.493,85.98c-0.306,0-0.614-0.015-0.924-0.044c-2.532-0.237-4.973-1.414-6.872-3.314l-8.338-8.338
	c-4.125-4.124-4.483-10.477-0.8-14.159l19.555-19.556l5.657,5.657L8.216,65.781c-0.407,0.407-0.296,1.75,0.8,2.847l8.338,8.338
	c0.577,0.576,1.292,0.943,1.962,1.006c0.184,0.02,0.644,0.032,0.883-0.207l19.556-19.554c0.486-0.487,0.755-1.136,0.755-1.824
	s-0.268-1.335-0.754-1.821l5.655-5.658c1.998,1.997,3.099,4.653,3.099,7.479c0,2.825-1.1,5.481-3.097,7.479L25.856,83.421
	C24.206,85.072,21.925,85.98,19.493,85.98z"/>
<rect x="39.121" y="23.879" transform="matrix(0.7072 0.707 -0.707 0.7072 42.9317 -17.9378)" width="8" height="37.964"/>
</svg>
