<svg xmlns="http://www.w3.org/2000/svg" x="0" y="0" viewBox="0 0 27 27">
  <rect width="27" height="27" fill="#fff"/>
  <path fill="none" stroke="#9c9c9c" stroke-width="2" stroke-miterlimit="10" d="M21.254 5.746L5.746 21.254M21.177 13.176l-8.002 8.002"/>
</svg>
